{
    "status": 1,
    "message": "Data retrieved successfully",
    "data": {
      "header": {
        "العميل": "Adil Mourchid",
        "تاريخ": "6/14/2022",
        "المجموع": 47358.78
      },
      "body": [
        {
          "Product SKU": "الإطلاع",
          "Catégorie": "كشف",
          "SKU Désignation Fr": "لمحفظة الخاصة",
          "Caisse": 142,
          "Unité": 10,
          "Montant": 10100
        },
        {
          "Product SKU": "الإطلاع",
          "Catégorie": "كشف",
          "SKU Désignation Fr": "لمحفظة الخاصة",
          "Caisse": 142,
          "Unité": 10,
          "Montant": 10100
        },
        {
          "Product SKU": "الإطلاع",
          "Catégorie": "كشف",
          "SKU Désignation Fr": "لمحفظة الخاصة",
          "Caisse": 142,
          "Unité": 10,
          "Montant": 10100
        }
      ]
    }
  }
